Solutions to WPA10
…
(extra) Collapse the data across classrooms. Can you look at the
effect of the number of student per classrrom on the improvements of
math and french, taking into account the school level as well?

grouped = group_by(data, 
                   CLASSE2, )
collapsed = summarise(grouped, 
                      mean_improvement_math = mean(improvement_math, na.rm=TRUE),
                      mean_improvement_french = mean(improvement_french, na.rm=TRUE),
                      NBEL2 = mean(NBEL2),
                      ECOLE2 = mean(ECOLE2))
collapsed

## # A tibble: 32 x 5
##    CLASSE2 mean_improvement_math mean_improvement_french NBEL2 ECOLE2
##      <dbl>                 <dbl>                   <dbl> <dbl>  <dbl>
##  1       1                0.0992                  -0.131    27      1
##  2       2                0.350                   -0.126    15      2
##  3       3               -0.724                   -0.506    25      3
##  4       4               -0.294                   -0.508    26      3
##  5       5                0.0660                   0.421    26      3
##  6       6                0.560                    0.303    24      3
##  7       7               -0.303                   -0.100    22      4
##  8       8               -0.764                    0.936    23      5
##  9       9               -0.0604                  -0.133    26      5
## 10      10               -0.519                    0.153    25      5
## # … with 22 more rows
…
