Data wrangling
…
fake_data = bind_rows(fake_data_first_batch, fake_data_second_batch)
fake_data

## # A tibble: 30 x 6
##    student   age score_wpa1 score_wpa2 score_wpa3 score_wpa4
##      <int> <dbl>      <dbl>      <dbl>      <dbl>      <dbl>
##  1       1    35       8.49       7.89       5.20       6.07
##  2       2    28       8.33       7.39       3.52       5.82
##  3       3    27       6.65       6.03       6.07       4.49
##  4       4    34       9.52       8.54       4.30       7.01
##  5       5    35       9.46       8.52       3.87       6.83
##  6       6    26       8.76       7.87       4.62       6.29
##  7       7    38       6.84       6.25       4.78       4.94
##  8       8    33       5.38       4.95       3.66       3.61
##  9       9    28       6.81       6.28       3.00       4.85
## 10      10    33       6.42       5.63       1.47       4.51
## # … with 20 more rows

# new variables
new_info = tibble(
    student = 1:(2*N),
    score_wpa5 = mean_score_students*0.5 + rnorm(2*N, 0, 1),
    gender = rbinom(2*N, 1, .5)
)

print(new_info)

## # A tibble: 30 x 3
##    student score_wpa5 gender
##      <int>      <dbl>  <int>
##  1       1       3.90      0
##  2       2       3.60      1
##  3       3       5.04      1
##  4       4       3.17      0
##  5       5       3.22      0
##  6       6       1.71      0
##  7       7       5.62      0
##  8       8       4.41      0
##  9       9       4.69      0
## 10      10       4.79      1
## # … with 20 more rows

fake_data = bind_cols(fake_data,
                      new_info)

## New names:
## * student -> student...1
## * student -> student...7

print(fake_data)

## # A tibble: 30 x 9
##    student...1   age score_wpa1 score_wpa2 score_wpa3 score_wpa4 student...7 score_wpa5 gender
##          <int> <dbl>      <dbl>      <dbl>      <dbl>      <dbl>       <int>      <dbl>  <int>
##  1           1    35       8.49       7.89       5.20       6.07           1       3.90      0
##  2           2    28       8.33       7.39       3.52       5.82           2       3.60      1
##  3           3    27       6.65       6.03       6.07       4.49           3       5.04      1
##  4           4    34       9.52       8.54       4.30       7.01           4       3.17      0
##  5           5    35       9.46       8.52       3.87       6.83           5       3.22      0
##  6           6    26       8.76       7.87       4.62       6.29           6       1.71      0
##  7           7    38       6.84       6.25       4.78       4.94           7       5.62      0
##  8           8    33       5.38       4.95       3.66       3.61           8       4.41      0
##  9           9    28       6.81       6.28       3.00       4.85           9       4.69      0
## 10          10    33       6.42       5.63       1.47       4.51          10       4.79      1
## # … with 20 more rows
…
