Solutions to WPA5
…
dim(police_locals_new)

## [1] 450   4

head(police_locals_new, 30)

## # A tibble: 30 x 4
##    city     force_size ethnic_group perc_locals
##    <chr>         <int> <chr>              <dbl>
##  1 New York      32300 all                0.618
##  2 New York      32300 white              0.446
##  3 New York      32300 non_white          0.764
##  4 New York      32300 black              0.771
##  5 New York      32300 hispanic           0.763
##  6 New York      32300 asian              0.749
##  7 Chicago       12120 all                0.875
##  8 Chicago       12120 white              0.872
##  9 Chicago       12120 non_white          0.877
## 10 Chicago       12120 black              0.897
## # … with 20 more rows
…
